<?xml version="1.0" encoding="UTF-8" standalone="no"?>
<!-- Created with Inkscape (http://www.inkscape.org/) -->

<svg
   xmlns:dc="http://purl.org/dc/elements/1.1/"
   xmlns:cc="http://creativecommons.org/ns#"
   xmlns:rdf="http://www.w3.org/1999/02/22-rdf-syntax-ns#"
   xmlns:svg="http://www.w3.org/2000/svg"
   xmlns="http://www.w3.org/2000/svg"
   xmlns:sodipodi="http://sodipodi.sourceforge.net/DTD/sodipodi-0.dtd"
   xmlns:inkscape="http://www.inkscape.org/namespaces/inkscape"
   sodipodi:docname="speedDrawring.svg"
   inkscape:version="0.92.5 (2060ec1f9f, 2020-04-08)"
   id="svg8"
   version="1.1"
   viewBox="0 0 159.65137 73.229149"
   height="73.229149mm"
   width="159.65137mm">
  <defs
     id="defs2">
    <marker
       inkscape:stockid="Arrow2Lend"
       orient="auto"
       refY="0"
       refX="0"
       id="marker7211"
       style="overflow:visible"
       inkscape:isstock="true">
      <path
         id="path7209"
         style="fill:#575757;fill-opacity:1;fill-rule:evenodd;stroke:#575757;stroke-width:0.625;stroke-linejoin:round;stroke-opacity:1"
         d="M 8.7185878,4.0337352 -2.2072895,0.01601326 8.7185884,-4.0017078 c -1.7454984,2.3720609 -1.7354408,5.6174519 -6e-7,8.035443 z"
         transform="matrix(-1.1,0,0,-1.1,-1.1,0)"
         inkscape:connector-curvature="0" />
    </marker>
    <marker
       inkscape:isstock="true"
       style="overflow:visible"
       id="marker1504"
       refX="0"
       refY="0"
       orient="auto"
       inkscape:stockid="Arrow2Lend">
      <path
         transform="matrix(-1.1,0,0,-1.1,-1.1,0)"
         d="M 8.7185878,4.0337352 -2.2072895,0.01601326 8.7185884,-4.0017078 c -1.7454984,2.3720609 -1.7354408,5.6174519 -6e-7,8.035443 z"
         style="fill:#575757;fill-opacity:1;fill-rule:evenodd;stroke:#575757;stroke-width:0.625;stroke-linejoin:round;stroke-opacity:1"
         id="path1502"
         inkscape:connector-curvature="0" />
    </marker>
    <marker
       inkscape:stockid="Arrow1Lstart"
       orient="auto"
       refY="0"
       refX="0"
       id="Arrow1Lstart"
       style="overflow:visible"
       inkscape:isstock="true">
      <path
         id="path829"
         d="M 0,0 5,-5 -12.5,0 5,5 Z"
         style="fill:#000000;fill-opacity:1;fill-rule:evenodd;stroke:#000000;stroke-width:1.00000003pt;stroke-opacity:1"
         transform="matrix(0.8,0,0,0.8,10,0)"
         inkscape:connector-curvature="0" />
    </marker>
    <marker
       inkscape:stockid="Arrow2Lend"
       orient="auto"
       refY="0"
       refX="0"
       id="Arrow2Lend"
       style="overflow:visible"
       inkscape:isstock="true"
       inkscape:collect="always">
      <path
         id="path850"
         style="fill:#000000;fill-opacity:1;fill-rule:evenodd;stroke:#000000;stroke-width:0.625;stroke-linejoin:round;stroke-opacity:1"
         d="M 8.7185878,4.0337352 -2.2072895,0.01601326 8.7185884,-4.0017078 c -1.7454984,2.3720609 -1.7354408,5.6174519 -6e-7,8.035443 z"
         transform="matrix(-1.1,0,0,-1.1,-1.1,0)"
         inkscape:connector-curvature="0" />
    </marker>
    <marker
       inkscape:stockid="TriangleInL"
       orient="auto"
       refY="0"
       refX="0"
       id="TriangleInL"
       style="overflow:visible"
       inkscape:isstock="true">
      <path
         id="path962"
         d="M 5.77,0 -2.88,5 V -5 Z"
         style="fill:#000000;fill-opacity:1;fill-rule:evenodd;stroke:#000000;stroke-width:1.00000003pt;stroke-opacity:1"
         transform="scale(-0.8)"
         inkscape:connector-curvature="0" />
    </marker>
    <clipPath
       id="clipPath1399"
       clipPathUnits="userSpaceOnUse">
      <path
         inkscape:connector-curvature="0"
         id="path1397"
         d="M 63.66,345 H 596.062 V 61 H 63.66 Z" />
    </clipPath>
    <marker
       inkscape:isstock="true"
       style="overflow:visible"
       id="marker1504-3"
       refX="0"
       refY="0"
       orient="auto"
       inkscape:stockid="Arrow2Lend">
      <path
         inkscape:connector-curvature="0"
         transform="matrix(-1.1,0,0,-1.1,-1.1,0)"
         d="M 8.7185878,4.0337352 -2.2072895,0.01601326 8.7185884,-4.0017078 c -1.7454984,2.3720609 -1.7354408,5.6174519 -6e-7,8.035443 z"
         style="fill:#575757;fill-opacity:1;fill-rule:evenodd;stroke:#575757;stroke-width:0.625;stroke-linejoin:round;stroke-opacity:1"
         id="path1502-6" />
    </marker>
    <clipPath
       id="clipPath1399-7"
       clipPathUnits="userSpaceOnUse">
      <path
         inkscape:connector-curvature="0"
         id="path1397-5"
         d="M 63.66,345 H 596.062 V 61 H 63.66 Z" />
    </clipPath>
    <marker
       inkscape:isstock="true"
       style="overflow:visible"
       id="marker1504-7"
       refX="0"
       refY="0"
       orient="auto"
       inkscape:stockid="Arrow2Lend">
      <path
         inkscape:connector-curvature="0"
         transform="matrix(-1.1,0,0,-1.1,-1.1,0)"
         d="M 8.7185878,4.0337352 -2.2072895,0.01601326 8.7185884,-4.0017078 c -1.7454984,2.3720609 -1.7354408,5.6174519 -6e-7,8.035443 z"
         style="fill:#575757;fill-opacity:1;fill-rule:evenodd;stroke:#575757;stroke-width:0.625;stroke-linejoin:round;stroke-opacity:1"
         id="path1502-0" />
    </marker>
    <clipPath
       id="clipPath1399-9"
       clipPathUnits="userSpaceOnUse">
      <path
         inkscape:connector-curvature="0"
         id="path1397-3"
         d="M 63.66,345 H 596.062 V 61 H 63.66 Z" />
    </clipPath>
    <marker
       inkscape:isstock="true"
       style="overflow:visible"
       id="marker1504-9"
       refX="0"
       refY="0"
       orient="auto"
       inkscape:stockid="Arrow2Lend"
       inkscape:collect="always">
      <path
         inkscape:connector-curvature="0"
         transform="matrix(-1.1,0,0,-1.1,-1.1,0)"
         d="M 8.7185878,4.0337352 -2.2072895,0.01601326 8.7185884,-4.0017078 c -1.7454984,2.3720609 -1.7354408,5.6174519 -6e-7,8.035443 z"
         style="fill:#575757;fill-opacity:1;fill-rule:evenodd;stroke:#575757;stroke-width:0.625;stroke-linejoin:round;stroke-opacity:1"
         id="path1502-2" />
    </marker>
    <marker
       inkscape:isstock="true"
       style="overflow:visible"
       id="marker1504-9-2"
       refX="0"
       refY="0"
       orient="auto"
       inkscape:stockid="Arrow2Lend">
      <path
         inkscape:connector-curvature="0"
         transform="matrix(-1.1,0,0,-1.1,-1.1,0)"
         d="M 8.7185878,4.0337352 -2.2072895,0.01601326 8.7185884,-4.0017078 c -1.7454984,2.3720609 -1.7354408,5.6174519 -6e-7,8.035443 z"
         style="fill:#575757;fill-opacity:1;fill-rule:evenodd;stroke:#575757;stroke-width:0.625;stroke-linejoin:round;stroke-opacity:1"
         id="path1502-2-2" />
    </marker>
    <marker
       inkscape:isstock="true"
       style="overflow:visible"
       id="marker1504-9-9"
       refX="0"
       refY="0"
       orient="auto"
       inkscape:stockid="Arrow2Lend">
      <path
         inkscape:connector-curvature="0"
         transform="matrix(-1.1,0,0,-1.1,-1.1,0)"
         d="M 8.7185878,4.0337352 -2.2072895,0.01601326 8.7185884,-4.0017078 c -1.7454984,2.3720609 -1.7354408,5.6174519 -6e-7,8.035443 z"
         style="fill:#575757;fill-opacity:1;fill-rule:evenodd;stroke:#575757;stroke-width:0.625;stroke-linejoin:round;stroke-opacity:1"
         id="path1502-2-7" />
    </marker>
    <marker
       inkscape:isstock="true"
       style="overflow:visible"
       id="marker1504-6"
       refX="0"
       refY="0"
       orient="auto"
       inkscape:stockid="Arrow2Lend">
      <path
         inkscape:connector-curvature="0"
         transform="matrix(-1.1,0,0,-1.1,-1.1,0)"
         d="M 8.7185878,4.0337352 -2.2072895,0.01601326 8.7185884,-4.0017078 c -1.7454984,2.3720609 -1.7354408,5.6174519 -6e-7,8.035443 z"
         style="fill:#575757;fill-opacity:1;fill-rule:evenodd;stroke:#575757;stroke-width:0.625;stroke-linejoin:round;stroke-opacity:1"
         id="path1502-1" />
    </marker>
    <clipPath
       id="clipPath1399-2"
       clipPathUnits="userSpaceOnUse">
      <path
         inkscape:connector-curvature="0"
         id="path1397-9"
         d="M 63.66,345 H 596.062 V 61 H 63.66 Z" />
    </clipPath>
    <marker
       inkscape:isstock="true"
       style="overflow:visible"
       id="marker1504-4"
       refX="0"
       refY="0"
       orient="auto"
       inkscape:stockid="Arrow2Lend">
      <path
         inkscape:connector-curvature="0"
         transform="matrix(-1.1,0,0,-1.1,-1.1,0)"
         d="M 8.7185878,4.0337352 -2.2072895,0.01601326 8.7185884,-4.0017078 c -1.7454984,2.3720609 -1.7354408,5.6174519 -6e-7,8.035443 z"
         style="fill:#575757;fill-opacity:1;fill-rule:evenodd;stroke:#575757;stroke-width:0.625;stroke-linejoin:round;stroke-opacity:1"
         id="path1502-5" />
    </marker>
    <clipPath
       id="clipPath1399-0"
       clipPathUnits="userSpaceOnUse">
      <path
         inkscape:connector-curvature="0"
         id="path1397-36"
         d="M 63.66,345 H 596.062 V 61 H 63.66 Z" />
    </clipPath>
  </defs>
  <sodipodi:namedview
     id="base"
     pagecolor="#ffffff"
     bordercolor="#666666"
     borderopacity="1.0"
     inkscape:pageopacity="0.0"
     inkscape:pageshadow="2"
     inkscape:zoom="1.4142136"
     inkscape:cx="374.29517"
     inkscape:cy="90.810044"
     inkscape:document-units="mm"
     inkscape:current-layer="layer1"
     showgrid="false"
     showguides="false"
     inkscape:snap-intersection-paths="false"
     inkscape:snap-center="false"
     inkscape:window-width="1920"
     inkscape:window-height="1053"
     inkscape:window-x="0"
     inkscape:window-y="0"
     inkscape:window-maximized="1"
     inkscape:object-nodes="false"
     fit-margin-top="2"
     fit-margin-left="2"
     fit-margin-right="2"
     fit-margin-bottom="2" />
  <metadata
     id="metadata5">
    <rdf:RDF>
      <cc:Work
         rdf:about="">
        <dc:format>image/svg+xml</dc:format>
        <dc:type
           rdf:resource="http://purl.org/dc/dcmitype/StillImage" />
        <dc:title></dc:title>
      </cc:Work>
    </rdf:RDF>
  </metadata>
  <g
     inkscape:label="Ebene 1"
     inkscape:groupmode="layer"
     id="layer1"
     transform="translate(-28.699414,-64.964955)">
    <g
       transform="matrix(-0.06660515,0,0,-0.06660515,194.89763,138.19112)"
       id="g1494">
      <g
         id="g7199">
        <g
           id="g1371">
          <path
             d="m 128.32112,347.73686 h 713.6435"
             style="fill:none;stroke:#575757;stroke-width:1.90675938;stroke-linecap:butt;stroke-linejoin:miter;stroke-miterlimit:4;stroke-dasharray:none;stroke-opacity:1;marker-end:url(#marker1504)"
             id="path1389"
             inkscape:connector-curvature="0" />
        </g>
        <g
           id="g1393"
           transform="translate(64.661116,144.6119)">
          <g
             id="g1395"
             clip-path="url(#clipPath1399)">
            <path
               d="m 63.66,202.695 27.07,-1.769 9.028,-1.309 9.019,-1.89 9.024,-2.661 9.027,-3.648 9.02,-4.84 9.023,-6.242 9.027,-7.809 9.02,-9.461 9.031,-11.089 18.039,-26.211 9.032,-14.231 18.039,-26.976 9.031,-10.801 9.019,-7.57 9.032,-3.313 9.019,1.801 9.02,7.492 9.031,13.398 9.019,19.09 9.02,24.11 9.027,28.062 36.094,120.649 9.027,24.121 9.02,19.09 9.031,13.398 9.02,7.492 9.019,1.797 9.032,-3.316 9.019,-7.563 9.02,-10.801 9.031,-12.937 27.07,-41.93 9.02,-12.562 9.031,-11.09 9.019,-9.461 9.02,-7.797 9.027,-6.242 9.024,-4.84 9.027,-3.648 18.043,-4.563 9.027,-1.297 18.04,-1.43 9.031,-0.339 36.09,-0.422"
               style="fill:none;stroke:#009afa;stroke-width:3;stroke-linecap:butt;stroke-linejoin:miter;stroke-miterlimit:2;stroke-dasharray:none;stroke-opacity:1"
               id="path1401"
               inkscape:connector-curvature="0" />
          </g>
        </g>
      </g>
      <path
         d="M 845.21034,320.91524 H 1185.4468"
         style="fill:none;stroke:#575757;stroke-width:1.90675938;stroke-linecap:butt;stroke-linejoin:miter;stroke-miterlimit:4;stroke-dasharray:none;stroke-opacity:1;marker-end:url(#marker7211)"
         id="path1389-23"
         inkscape:connector-curvature="0"
         sodipodi:nodetypes="cc" />
      <path
         sodipodi:nodetypes="cc"
         inkscape:connector-curvature="0"
         id="path7174"
         style="fill:none;stroke:#575757;stroke-width:1.90675938;stroke-linecap:butt;stroke-linejoin:miter;stroke-miterlimit:4;stroke-dasharray:none;stroke-opacity:1;marker-end:url(#marker1504-9)"
         d="M 1188.6343,298.44386 H 848.39788" />
    </g>
    <g
       id="g16"
       transform="matrix(1,0,0,-1,-31.32304,209.66748)">
      <path
         sodipodi:nodetypes="ccc"
         inkscape:connector-curvature="0"
         id="path10"
         d="M 147.80005,94.676967 C 140.85104,77.304447 117.59859,78.640796 117.59859,78.640796 H 64.946495 v 31.993274"
         style="fill:none;stroke:#000000;stroke-width:0.26458332px;stroke-linecap:butt;stroke-linejoin:miter;stroke-opacity:1" />
      <path
         style="fill:none;stroke:#000000;stroke-width:0.26458332px;stroke-linecap:butt;stroke-linejoin:miter;stroke-opacity:1"
         d="m 147.80005,94.597894 c -6.94901,17.372526 -30.20146,16.036176 -30.20146,16.036176 H 64.946495"
         id="path12"
         inkscape:connector-curvature="0"
         sodipodi:nodetypes="ccc" />
    </g>
    <text
       xml:space="preserve"
       style="font-style:normal;font-weight:normal;font-size:10.58333302px;line-height:1.25;font-family:sans-serif;letter-spacing:0px;word-spacing:0px;fill:#000000;fill-opacity:1;stroke:none;stroke-width:0.26458332"
       x="180.35347"
       y="61.268276"
       id="text20"><tspan
         sodipodi:role="line"
         id="tspan18"
         x="180.35347"
         y="70.632042"
         style="stroke-width:0.26458332" /></text>
    <path
       style="fill:none;stroke:#000000;stroke-width:0.26499999;stroke-linecap:butt;stroke-linejoin:miter;stroke-miterlimit:4;stroke-dasharray:none;stroke-opacity:1;marker-start:url(#Arrow1Lstart);marker-end:url(#Arrow2Lend)"
       d="m 31.213875,81.732094 h 82.853545 v 0"
       id="path22"
       inkscape:connector-curvature="0" />
    <text
       xml:space="preserve"
       style="font-style:normal;font-weight:normal;font-size:10.58333302px;line-height:1.25;font-family:sans-serif;letter-spacing:0px;word-spacing:0px;fill:#000000;fill-opacity:1;stroke:none;stroke-width:0.26458332"
       x="138.77396"
       y="68.400002"
       id="text1189"><tspan
         sodipodi:role="line"
         id="tspan1187"
         x="138.77396"
         y="77.763771"
         style="stroke-width:0.26458332" /></text>
    <g
       id="g1242"
       transform="matrix(0.74887687,0,0,0.74887687,30.350999,49.942027)">
      <g
         word-spacing="normal"
         letter-spacing="normal"
         font-size-adjust="none"
         font-stretch="normal"
         font-weight="normal"
         font-variant="normal"
         font-style="normal"
         stroke-miterlimit="10.433"
         xml:space="preserve"
         transform="matrix(0.3,0,0,-0.3,-52.5,222.75)"
         id="g1240"
         style="font-style:normal;font-variant:normal;font-weight:normal;font-stretch:normal;letter-spacing:normal;word-spacing:normal;text-anchor:start;fill:none;fill-opacity:1;fill-rule:evenodd;stroke:#000000;stroke-linecap:butt;stroke-linejoin:miter;stroke-miterlimit:10.43299961;stroke-dasharray:none;stroke-dashoffset:0;stroke-opacity:1"><path
           id="path1238"
           d="M 489.25,414.28 H 488 c -0.25,-1.3 -0.45,-2.46 -0.89,-3.64 -0.25,-0.8 -0.4,-1.21 -3.29,-1.21 h -3.99 c 0.64,2.8 2.19,5.19 4.44,8.47 2.34,3.55 4.37,6.99 4.37,10.92 0,6.93 -6.71,12.5 -15.14,12.5 -8.56,0 -15.18,-5.68 -15.18,-12.5 0,-3.93 2.03,-7.37 4.37,-10.92 2.19,-3.28 3.78,-5.67 4.44,-8.47 h -3.99 c -2.89,0 -3.04,0.41 -3.29,1.16 -0.39,1.14 -0.64,2.44 -0.89,3.69 h -1.25 l 1.65,-8.08 h 7.97 c 1.1,0 1.24,0 1.24,1.05 0,3.48 -1.53,7.87 -2.69,11.06 -1.05,2.89 -2.44,6.83 -2.44,10.56 0,7.97 5.49,11.36 10.02,11.36 4.78,0 10.06,-3.59 10.06,-11.36 0,-3.73 -1.34,-7.53 -2.8,-11.61 -0.73,-2.09 -2.33,-6.58 -2.33,-10.01 0,-1.05 0.15,-1.05 1.29,-1.05 h 7.92 z"
           inkscape:connector-curvature="0"
           style="fill:#000000;stroke-width:0" /></g>    </g>
    <g
       id="g1272"
       transform="matrix(0.86096515,0,0,0.86096515,-2.0074946,-11.108226)">
      <g
         word-spacing="normal"
         letter-spacing="normal"
         font-size-adjust="none"
         font-stretch="normal"
         font-weight="normal"
         font-variant="normal"
         font-style="normal"
         stroke-miterlimit="10.433"
         xml:space="preserve"
         transform="matrix(0.3,0,0,-0.3,-52.5,222.75)"
         id="content"
         style="font-style:normal;font-variant:normal;font-weight:normal;font-stretch:normal;letter-spacing:normal;word-spacing:normal;text-anchor:start;fill:none;fill-opacity:1;fill-rule:evenodd;stroke:#000000;stroke-linecap:butt;stroke-linejoin:miter;stroke-miterlimit:10.43299961;stroke-dasharray:none;stroke-dashoffset:0;stroke-opacity:1"><path
           id="path1269"
           d="m 463.44,410.09 -0.04,-0.18 -0.05,-0.17 -0.04,-0.16 -0.05,-0.15 -0.04,-0.15 -0.05,-0.13 -0.04,-0.13 -0.05,-0.12 -0.06,-0.11 -0.06,-0.11 -0.06,-0.1 -0.07,-0.09 -0.08,-0.09 -0.09,-0.07 -0.09,-0.08 -0.11,-0.06 -0.11,-0.07 -0.12,-0.05 -0.14,-0.05 -0.15,-0.05 -0.16,-0.04 -0.09,-0.02 -0.08,-0.01 -0.1,-0.02 -0.1,-0.02 -0.1,-0.01 -0.1,-0.01 -0.11,-0.01 -0.11,-0.02 -0.12,-0.01 -0.12,-0.01 h -0.13 l -0.13,-0.01 -0.13,-0.01 h -0.15 l -0.14,-0.01 h -0.15 l -0.16,-0.01 h -0.16 -0.16 -0.17 -0.18 -0.18 c -0.84,0 -1.39,0 -1.39,-0.96 0,-0.59 0.44,-0.59 1.39,-0.59 h 16.48 l -0.89,1.55 h -5.62 c -0.7,0 -0.8,0 -1.11,0.04 -0.48,0.05 -0.64,0.1 -0.64,0.5 0,0.14 0,0.25 0.25,1.14 l 6.83,27.36 c 0.43,1.74 0.54,1.89 2.68,1.89 h 5.33 c 4.89,0 9.02,-2.64 9.02,-9.22 0,-2.43 -1,-10.6 -5.24,-16.09 -1.43,-1.84 -5.37,-5.62 -11.5,-5.62 l 0.89,-1.55 c 10.36,0 20.19,10.51 20.19,21.42 0,7.03 -4.23,12.61 -11.72,12.61 h -16.73 c -0.95,0 -1.5,0 -1.5,-0.95 0,-0.6 0.45,-0.6 1.45,-0.6 0.64,0 1.55,-0.04 2.14,-0.09 0.8,-0.11 1.1,-0.25 1.1,-0.8 0,-0.2 -0.05,-0.36 -0.21,-0.95 z"
           inkscape:connector-curvature="0"
           style="fill:#000000;stroke-width:0" /></g>    </g>
    <g
       id="g7523"
       transform="translate(18.33469,-6.8287748)">
      <g
         id="g7199-1"
         transform="matrix(0.06660515,0,0,-0.06660515,94.239863,156.73911)">
        <g
           id="g1371-0">
          <path
             inkscape:connector-curvature="0"
             id="path1389-6"
             style="fill:none;stroke:#575757;stroke-width:1.90675938;stroke-linecap:butt;stroke-linejoin:miter;stroke-miterlimit:4;stroke-dasharray:none;stroke-opacity:1;marker-end:url(#marker1504-4)"
             d="m 128.32112,347.73686 h 713.6435" />
        </g>
        <g
           transform="matrix(1,0,0,-1,64.661116,550.86208)"
           id="g1393-3">
          <g
             clip-path="url(#clipPath1399-0)"
             id="g1395-2">
            <path
               inkscape:connector-curvature="0"
               id="path1401-0"
               style="fill:none;stroke:#009afa;stroke-width:3;stroke-linecap:butt;stroke-linejoin:miter;stroke-miterlimit:2;stroke-dasharray:none;stroke-opacity:1"
               d="m 63.66,202.695 27.07,-1.769 9.028,-1.309 9.019,-1.89 9.024,-2.661 9.027,-3.648 9.02,-4.84 9.023,-6.242 9.027,-7.809 9.02,-9.461 9.031,-11.089 18.039,-26.211 9.032,-14.231 18.039,-26.976 9.031,-10.801 9.019,-7.57 9.032,-3.313 9.019,1.801 9.02,7.492 9.031,13.398 9.019,19.09 9.02,24.11 9.027,28.062 36.094,120.649 9.027,24.121 9.02,19.09 9.031,13.398 9.02,7.492 9.019,1.797 9.032,-3.316 9.019,-7.563 9.02,-10.801 9.031,-12.937 27.07,-41.93 9.02,-12.562 9.031,-11.09 9.019,-9.461 9.02,-7.797 9.027,-6.242 9.024,-4.84 9.027,-3.648 18.043,-4.563 9.027,-1.297 18.04,-1.43 9.031,-0.339 36.09,-0.422" />
          </g>
        </g>
      </g>
      <g
         transform="matrix(0.37972998,0,0,0.37972998,79.105248,100.96408)"
         id="g2100">
        <g
           style="font-style:normal;font-variant:normal;font-weight:normal;font-stretch:normal;letter-spacing:normal;word-spacing:normal;text-anchor:start;fill:none;fill-opacity:1;fill-rule:evenodd;stroke:#000000;stroke-linecap:butt;stroke-linejoin:miter;stroke-miterlimit:10.43299961;stroke-dasharray:none;stroke-dashoffset:0;stroke-opacity:1"
           id="g2098"
           transform="matrix(0.3,0,0,-0.3,-52.5,222.75)"
           xml:space="preserve"
           stroke-miterlimit="10.433"
           font-style="normal"
           font-variant="normal"
           font-weight="normal"
           font-stretch="normal"
           font-size-adjust="none"
           letter-spacing="normal"
           word-spacing="normal"><path
             style="fill:#000000;stroke-width:0"
             inkscape:connector-curvature="0"
             d="m 464.44,411.93 -0.19,-0.3 -0.18,-0.29 -0.19,-0.28 -0.19,-0.26 -0.18,-0.25 -0.19,-0.23 -0.19,-0.22 -0.18,-0.21 -0.19,-0.2 -0.19,-0.18 -0.18,-0.17 -0.19,-0.16 -0.19,-0.15 -0.18,-0.14 -0.19,-0.13 -0.19,-0.12 -0.19,-0.11 -0.19,-0.1 -0.19,-0.09 -0.19,-0.09 -0.19,-0.07 -0.2,-0.07 -0.19,-0.07 -0.2,-0.05 -0.19,-0.05 -0.2,-0.04 -0.2,-0.04 -0.19,-0.03 -0.41,-0.05 -0.4,-0.03 c -0.61,-0.05 -1.05,-0.05 -1.05,-1 0,-0.3 0.25,-0.55 0.64,-0.55 1.34,0 2.89,0.16 4.28,0.16 1.64,0 3.39,-0.16 4.99,-0.16 0.29,0 0.95,0 0.95,0.95 0,0.55 -0.45,0.6 -0.8,0.6 -1.15,0.09 -2.34,0.5 -2.34,1.73 0,0.61 0.3,1.16 0.69,1.84 l 3.79,6.39 h 12.5 l -0.14,1.54 h -11.42 l 9.83,16.45 1.59,-16.45 0.14,-1.54 c 0.11,-1.04 0.8,-7.82 0.8,-8.32 0,-1.5 -2.59,-1.64 -3.58,-1.64 -0.7,0 -1.2,0 -1.2,-1 0,-0.55 0.59,-0.55 0.7,-0.55 2.03,0 4.19,0.16 6.22,0.16 1.25,0 4.39,-0.16 5.64,-0.16 0.3,0 0.89,0 0.89,1 0,0.55 -0.5,0.55 -1.14,0.55 -3.09,0 -3.09,0.34 -3.25,1.79 l -3.03,31.13 c -0.11,1 -0.11,1.2 -0.95,1.2 -0.8,0 -0.99,-0.34 -1.3,-0.84 z"
             id="path2094" /><path
             style="fill:#000000;stroke-width:0"
             inkscape:connector-curvature="0"
             d="m 504.51,420.92 v 0.04 0.04 0.05 0.04 0.03 0.04 0.04 0.03 0.04 l -0.01,0.03 v 0.03 0.03 0.03 l -0.01,0.03 v 0.03 0.02 l -0.01,0.03 v 0.02 l -0.01,0.03 v 0.02 l -0.02,0.04 -0.01,0.04 -0.02,0.03 -0.02,0.03 -0.02,0.03 -0.02,0.03 -0.03,0.02 -0.03,0.02 -0.03,0.02 -0.04,0.01 -0.04,0.01 -0.05,0.02 h -0.02 -0.02 l -0.03,0.01 h -0.03 l -0.02,0.01 h -0.03 -0.03 -0.03 -0.03 l -0.04,0.01 h -0.03 -0.04 -0.03 -0.04 -0.04 -0.04 -0.04 -0.05 -0.04 -0.05 c -2.23,-2.2 -5.39,-2.23 -6.82,-2.23 v -1.25 c 0.84,0 3.14,0 5.04,0.97 v -17.77 c 0,-1.16 0,-1.61 -3.48,-1.61 h -1.31 v -1.25 c 0.62,0.03 4.9,0.14 6.2,0.14 1.08,0 5.47,-0.11 6.23,-0.14 v 1.25 H 508 c -3.49,0 -3.49,0.45 -3.49,1.61 z"
             id="path2096" /></g>      </g>
    </g>
    <g
       id="g2167"
       transform="matrix(0.22016306,0,0,0.22016306,161.48663,84.40455)">
      <g
         word-spacing="normal"
         letter-spacing="normal"
         font-size-adjust="none"
         font-stretch="normal"
         font-weight="normal"
         font-variant="normal"
         font-style="normal"
         stroke-miterlimit="10.433"
         xml:space="preserve"
         transform="matrix(0.3,0,0,-0.3,-52.5,222.75)"
         id="g2165"
         style="font-style:normal;font-variant:normal;font-weight:normal;font-stretch:normal;letter-spacing:normal;word-spacing:normal;text-anchor:start;fill:none;fill-opacity:1;fill-rule:evenodd;stroke:#000000;stroke-linecap:butt;stroke-linejoin:miter;stroke-miterlimit:10.43299961;stroke-dasharray:none;stroke-dashoffset:0;stroke-opacity:1"><path
           id="path2157"
           d="m 475,424.84 -0.13,-0.01 -0.12,-0.01 -0.13,-0.02 -0.12,-0.03 -0.12,-0.03 -0.12,-0.04 -0.11,-0.04 -0.11,-0.04 -0.11,-0.05 -0.1,-0.06 -0.1,-0.06 -0.1,-0.06 -0.09,-0.07 -0.09,-0.07 -0.09,-0.07 -0.08,-0.08 -0.08,-0.08 -0.07,-0.08 -0.07,-0.09 -0.06,-0.08 -0.06,-0.09 -0.06,-0.1 -0.05,-0.09 -0.04,-0.1 -0.04,-0.09 -0.04,-0.1 -0.03,-0.1 -0.02,-0.1 -0.02,-0.1 -0.02,-0.11 v -0.1 l -0.01,-0.1 c 0,-0.7 0.44,-1.44 1.55,-1.44 1.09,0 2.28,0.85 2.28,2.78 0,2.25 -2.14,4.28 -5.92,4.28 -6.58,0 -8.42,-5.07 -8.42,-7.26 0,-3.89 3.69,-4.64 5.12,-4.94 2.6,-0.5 5.19,-1.05 5.19,-3.78 0,-1.3 -1.14,-5.48 -7.12,-5.48 -0.71,0 -4.54,0 -5.69,2.64 1.9,-0.25 3.14,1.25 3.14,2.64 0,1.14 -0.8,1.75 -1.85,1.75 -1.29,0 -2.78,-1.05 -2.78,-3.3 0,-2.84 2.85,-4.83 7.13,-4.83 8.06,0 10.01,6.03 10.01,8.27 0,1.79 -0.95,3.04 -1.54,3.64 -1.35,1.39 -2.8,1.64 -4.99,2.09 -1.79,0.39 -3.78,0.75 -3.78,2.99 0,1.45 1.19,4.48 5.58,4.48 1.23,0 3.73,-0.34 4.48,-2.28 z"
           inkscape:connector-curvature="0"
           style="fill:#000000;stroke-width:0" /><path
           id="path2159"
           d="m 495.4,394.25 v 0.02 0.03 0.01 0.02 l -0.01,0.01 v 0.02 l -0.01,0.01 v 0.02 l -0.01,0.02 -0.01,0.02 -0.01,0.02 -0.02,0.03 -0.01,0.02 -0.02,0.03 -0.02,0.03 -0.03,0.03 -0.02,0.03 -0.03,0.04 -0.02,0.02 -0.02,0.02 -0.01,0.02 -0.02,0.02 -0.02,0.02 -0.02,0.03 -0.02,0.02 -0.02,0.02 -0.03,0.03 -0.02,0.02 -0.02,0.03 -0.03,0.03 -0.03,0.03 -0.02,0.03 -0.03,0.03 -0.03,0.03 -0.03,0.03 -0.04,0.03 -0.03,0.04 -0.03,0.03 -0.04,0.04 -0.03,0.03 -0.04,0.04 -0.04,0.04 c -6.22,6.28 -7.81,15.69 -7.81,23.31 0,8.67 1.89,17.35 8.01,23.56 0.64,0.61 0.64,0.71 0.64,0.86 0,0.35 -0.19,0.49 -0.48,0.49 -0.5,0 -4.99,-3.38 -7.92,-9.7 -2.55,-5.49 -3.14,-11.02 -3.14,-15.21 0,-3.89 0.54,-9.9 3.28,-15.54 2.98,-6.13 7.28,-9.36 7.78,-9.36 0.29,0 0.48,0.14 0.48,0.5 z"
           inkscape:connector-curvature="0"
           style="fill:#000000;stroke-width:0" /><path
           id="path2161"
           d="m 508.5,426.12 h 4.69 c 0.98,0 1.48,0 1.48,1 0,0.55 -0.5,0.55 -1.39,0.55 h -4.39 c 1.8,7.08 2.05,8.08 2.05,8.37 0,0.85 -0.6,1.35 -1.44,1.35 -0.16,0 -1.55,-0.05 -2,-1.8 l -1.94,-7.92 h -4.68 c -1,0 -1.5,0 -1.5,-0.94 0,-0.61 0.4,-0.61 1.4,-0.61 h 4.38 c -3.58,-14.14 -3.78,-14.98 -3.78,-15.89 0,-2.69 1.89,-4.58 4.57,-4.58 5.08,0 7.93,7.27 7.93,7.67 0,0.5 -0.4,0.5 -0.6,0.5 -0.45,0 -0.5,-0.15 -0.75,-0.7 -2.14,-5.17 -4.78,-6.37 -6.47,-6.37 -1.04,0 -1.54,0.65 -1.54,2.29 0,1.19 0.09,1.55 0.29,2.39 z"
           inkscape:connector-curvature="0"
           style="fill:#000000;stroke-width:0" /><path
           id="path2163"
           d="m 530.62,418.65 v 0.37 0.39 l -0.01,0.39 -0.01,0.41 -0.04,0.84 -0.06,0.88 -0.09,0.92 -0.1,0.95 -0.14,0.97 -0.16,1.01 -0.2,1.02 -0.23,1.03 -0.26,1.05 -0.31,1.06 -0.35,1.07 -0.39,1.07 -0.21,0.53 -0.23,0.53 -0.24,0.53 -0.25,0.53 c -2.98,6.12 -7.26,9.36 -7.76,9.36 -0.3,0 -0.5,-0.19 -0.5,-0.49 0,-0.15 0,-0.25 0.94,-1.15 4.89,-4.92 7.73,-12.85 7.73,-23.27 0,-8.51 -1.84,-17.28 -8.03,-23.56 -0.64,-0.59 -0.64,-0.7 -0.64,-0.84 0,-0.3 0.2,-0.5 0.5,-0.5 0.5,0 4.97,3.39 7.92,9.71 2.53,5.47 3.12,11 3.12,15.19 z"
           inkscape:connector-curvature="0"
           style="fill:#000000;stroke-width:0" /></g>    </g>
    <g
       id="g7541"
       transform="translate(15.610417,5.4239583)">
      <g
         id="g7199-3"
         transform="matrix(0.06660515,0,0,-0.06660515,89.749731,119.13429)">
        <g
           id="g1371-1">
          <path
             inkscape:connector-curvature="0"
             id="path1389-9"
             style="fill:none;stroke:#575757;stroke-width:1.90675938;stroke-linecap:butt;stroke-linejoin:miter;stroke-miterlimit:4;stroke-dasharray:none;stroke-opacity:1;marker-end:url(#marker1504-6)"
             d="m 128.32112,347.73686 h 713.6435" />
        </g>
        <g
           transform="translate(64.661116,144.6119)"
           id="g1393-4">
          <g
             clip-path="url(#clipPath1399-2)"
             id="g1395-7">
            <path
               inkscape:connector-curvature="0"
               id="path1401-8"
               style="fill:none;stroke:#009afa;stroke-width:3;stroke-linecap:butt;stroke-linejoin:miter;stroke-miterlimit:2;stroke-dasharray:none;stroke-opacity:1"
               d="m 63.66,202.695 27.07,-1.769 9.028,-1.309 9.019,-1.89 9.024,-2.661 9.027,-3.648 9.02,-4.84 9.023,-6.242 9.027,-7.809 9.02,-9.461 9.031,-11.089 18.039,-26.211 9.032,-14.231 18.039,-26.976 9.031,-10.801 9.019,-7.57 9.032,-3.313 9.019,1.801 9.02,7.492 9.031,13.398 9.019,19.09 9.02,24.11 9.027,28.062 36.094,120.649 9.027,24.121 9.02,19.09 9.031,13.398 9.02,7.492 9.019,1.797 9.032,-3.316 9.019,-7.563 9.02,-10.801 9.031,-12.937 27.07,-41.93 9.02,-12.562 9.031,-11.09 9.019,-9.461 9.02,-7.797 9.027,-6.242 9.024,-4.84 9.027,-3.648 18.043,-4.563 9.027,-1.297 18.04,-1.43 9.031,-0.339 36.09,-0.422" />
          </g>
        </g>
      </g>
      <g
         transform="matrix(0.38625997,0,0,0.38625997,74.539199,53.123303)"
         id="g2343">
        <g
           style="font-style:normal;font-variant:normal;font-weight:normal;font-stretch:normal;letter-spacing:normal;word-spacing:normal;text-anchor:start;fill:none;fill-opacity:1;fill-rule:evenodd;stroke:#000000;stroke-linecap:butt;stroke-linejoin:miter;stroke-miterlimit:10.43299961;stroke-dasharray:none;stroke-dashoffset:0;stroke-opacity:1"
           id="g2341"
           transform="matrix(0.3,0,0,-0.3,-52.5,222.75)"
           xml:space="preserve"
           stroke-miterlimit="10.433"
           font-style="normal"
           font-variant="normal"
           font-weight="normal"
           font-stretch="normal"
           font-size-adjust="none"
           letter-spacing="normal"
           word-spacing="normal"><path
             style="fill:#000000;stroke-width:0"
             inkscape:connector-curvature="0"
             d="m 464.44,411.93 -0.19,-0.3 -0.18,-0.29 -0.19,-0.28 -0.19,-0.26 -0.18,-0.25 -0.19,-0.23 -0.19,-0.22 -0.18,-0.21 -0.19,-0.2 -0.19,-0.18 -0.18,-0.17 -0.19,-0.16 -0.19,-0.15 -0.18,-0.14 -0.19,-0.13 -0.19,-0.12 -0.19,-0.11 -0.19,-0.1 -0.19,-0.09 -0.19,-0.09 -0.19,-0.07 -0.2,-0.07 -0.19,-0.07 -0.2,-0.05 -0.19,-0.05 -0.2,-0.04 -0.2,-0.04 -0.19,-0.03 -0.41,-0.05 -0.4,-0.03 c -0.61,-0.05 -1.05,-0.05 -1.05,-1 0,-0.3 0.25,-0.55 0.64,-0.55 1.34,0 2.89,0.16 4.28,0.16 1.64,0 3.39,-0.16 4.99,-0.16 0.29,0 0.95,0 0.95,0.95 0,0.55 -0.45,0.6 -0.8,0.6 -1.15,0.09 -2.34,0.5 -2.34,1.73 0,0.61 0.3,1.16 0.69,1.84 l 3.79,6.39 h 12.5 l -0.14,1.54 h -11.42 l 9.83,16.45 1.59,-16.45 0.14,-1.54 c 0.11,-1.04 0.8,-7.82 0.8,-8.32 0,-1.5 -2.59,-1.64 -3.58,-1.64 -0.7,0 -1.2,0 -1.2,-1 0,-0.55 0.59,-0.55 0.7,-0.55 2.03,0 4.19,0.16 6.22,0.16 1.25,0 4.39,-0.16 5.64,-0.16 0.3,0 0.89,0 0.89,1 0,0.55 -0.5,0.55 -1.14,0.55 -3.09,0 -3.09,0.34 -3.25,1.79 l -3.03,31.13 c -0.11,1 -0.11,1.2 -0.95,1.2 -0.8,0 -0.99,-0.34 -1.3,-0.84 z"
             id="path2337" /><path
             style="fill:#000000;stroke-width:0"
             inkscape:connector-curvature="0"
             d="m 510.43,405.11 h -1.18 c -0.1,-0.77 -0.46,-2.83 -0.91,-3.18 -0.27,-0.2 -2.95,-0.2 -3.44,-0.2 h -6.42 c 3.66,3.23 4.88,4.2 6.97,5.84 2.58,2.07 4.98,4.22 4.98,7.54 0,4.21 -3.68,6.79 -8.15,6.79 -4.32,0 -7.25,-3.03 -7.25,-6.23 0,-1.78 1.5,-1.96 1.86,-1.96 0.82,0 1.84,0.6 1.84,1.85 0,0.62 -0.25,1.84 -2.06,1.84 1.08,2.47 3.45,3.24 5.09,3.24 3.49,0 5.3,-2.71 5.3,-5.53 0,-3.04 -2.16,-5.44 -3.28,-6.69 l -8.39,-8.3 c -0.36,-0.31 -0.36,-0.39 -0.36,-1.36 h 14.36 z"
             id="path2339" /></g>      </g>
    </g>
    <path
       d="M 138.17232,109.24282 H 33.94016"
       style="fill:none;stroke:#575757;stroke-width:0.127;stroke-linecap:butt;stroke-linejoin:miter;stroke-miterlimit:4;stroke-dasharray:none;stroke-opacity:1;marker-end:url(#marker1504-9-2)"
       id="path1389-23-8"
       inkscape:connector-curvature="0"
       sodipodi:nodetypes="cc" />
    <path
       d="M 33.773774,108.05219 H 137.78525"
       style="fill:none;stroke:#575757;stroke-width:0.14632125;stroke-linecap:butt;stroke-linejoin:miter;stroke-miterlimit:4;stroke-dasharray:none;stroke-opacity:1;marker-end:url(#marker1504-9-9)"
       id="path1389-23-3"
       inkscape:connector-curvature="0"
       sodipodi:nodetypes="cc" />
    <g
       id="g7827"
       transform="matrix(0.65500128,0,0,0.65500128,123.72831,45.907341)">
      <g
         word-spacing="normal"
         letter-spacing="normal"
         font-size-adjust="none"
         font-stretch="normal"
         font-weight="normal"
         font-variant="normal"
         font-style="normal"
         stroke-miterlimit="10.433"
         xml:space="preserve"
         transform="matrix(0.10461307,0,0,-0.10461307,-18.307287,119.73853)"
         id="g7825"
         style="font-style:normal;font-variant:normal;font-weight:normal;font-stretch:normal;letter-spacing:normal;word-spacing:normal;text-anchor:start;fill:none;fill-opacity:1;fill-rule:evenodd;stroke:#000000;stroke-linecap:butt;stroke-linejoin:miter;stroke-miterlimit:10.43299961;stroke-dasharray:none;stroke-dashoffset:0;stroke-opacity:1"><g
           id="g8910"><g
             text-anchor="start"
             word-spacing="normal"
             letter-spacing="normal"
             font-size-adjust="none"
             font-stretch="normal"
             font-weight="normal"
             font-variant="normal"
             font-style="normal"
             fill-opacity="1"
             fill-rule="evenodd"
             fill="none"
             stroke-opacity="1"
             stroke-dashoffset="0"
             stroke-dasharray="none"
             stroke-miterlimit="10.433"
             stroke-linejoin="miter"
             stroke-linecap="butt"
             stroke="black"
             xml:space="preserve"
             transform="matrix(0.10461307,0,0,-0.10461307,-18.30728725,119.7385275)"
             id="g8908"><path
               id="path8880"
               fill="black"
               stroke-width="0"
               d="M465.79,426.12 H470.47 C471.46,426.12,471.96,426.12,471.96,427.12 C471.96,427.67,471.46,427.67,470.57,427.67 H466.18 C467.97,434.75,468.22,435.75,468.22,436.04 C468.22,436.89,467.63,437.39,466.79,437.39 C466.63,437.39,465.24,437.34,464.79,435.59 L462.85,427.67 H458.16 C457.16,427.67,456.66,427.67,456.66,426.73 C456.66,426.12,457.07,426.12,458.07,426.12 H462.44 C458.86,411.98,458.66,411.14,458.66,410.23 C458.66,407.54,460.55,405.65,463.24,405.65 C468.32,405.65,471.16,412.92,471.16,413.32 C471.16,413.82,470.77,413.82,470.57,413.82 C470.11,413.82,470.07,413.67,469.82,413.12 C467.68,407.95,465.04,406.75,463.35,406.75 C462.3,406.75,461.8,407.4,461.8,409.04 C461.8,410.23,461.89,410.59,462.1,411.43 Z " /><path
               id="path8882"
               fill="black"
               stroke-width="0"
               d="M491.11,405.11 H489.93 C489.83,404.34,489.47,402.28,489.02,401.93 C488.75,401.73,486.07,401.73,485.58,401.73 H479.16 C482.82,404.96,484.04,405.93,486.13,407.57 C488.71,409.64,491.11,411.79,491.11,415.11 C491.11,419.32,487.43,421.9,482.96,421.9 C478.64,421.9,475.71,418.87,475.71,415.67 C475.71,413.89,477.21,413.71,477.57,413.71 C478.39,413.71,479.41,414.31,479.41,415.56 C479.41,416.18,479.16,417.4,477.35,417.4 C478.43,419.87,480.8,420.64,482.44,420.64 C485.93,420.64,487.74,417.93,487.74,415.11 C487.74,412.07,485.58,409.67,484.46,408.42 L476.07,400.12 C475.71,399.81,475.71,399.73,475.71,398.76 H490.07 Z " /><path
               id="path8884"
               fill="black"
               stroke-width="0"
               d="M544,422.5 L544.14,422.5 L544.28,422.5 L544.42,422.5 L544.5,422.51 L544.57,422.51 L544.64,422.52 L544.71,422.53 L544.78,422.54 L544.85,422.55 L544.92,422.56 L544.99,422.58 L545.05,422.6 L545.12,422.62 L545.18,422.64 L545.23,422.67 L545.29,422.7 L545.34,422.74 L545.39,422.77 L545.44,422.82 L545.48,422.86 L545.52,422.91 L545.54,422.94 L545.56,422.97 L545.58,422.99 L545.59,423.02 L545.61,423.05 L545.62,423.09 L545.63,423.12 L545.64,423.16 L545.65,423.19 L545.66,423.23 L545.67,423.27 L545.67,423.31 L545.68,423.35 L545.68,423.39 L545.68,423.43 L545.68,423.48 C545.68,424.48,544.73,424.48,544.04,424.48 H514.2 C513.5,424.48,512.56,424.48,512.56,423.48 C512.56,422.5,513.5,422.5,514.25,422.5 Z " /><path
               id="path8886"
               fill="black"
               stroke-width="0"
               d="M544.04,412.82 L544.11,412.82 L544.17,412.82 L544.31,412.83 L544.45,412.83 L544.52,412.83 L544.59,412.84 L544.66,412.85 L544.73,412.85 L544.8,412.86 L544.86,412.88 L544.93,412.89 L545,412.91 L545.06,412.93 L545.12,412.95 L545.18,412.97 L545.24,413 L545.29,413.03 L545.35,413.07 L545.4,413.11 L545.44,413.15 L545.48,413.2 L545.5,413.22 L545.52,413.25 L545.54,413.27 L545.56,413.3 L545.58,413.33 L545.59,413.36 L545.61,413.39 L545.62,413.42 L545.63,413.46 L545.64,413.49 L545.65,413.53 L545.66,413.57 L545.67,413.61 L545.67,413.65 L545.68,413.69 L545.68,413.73 L545.68,413.78 L545.68,413.82 C545.68,414.82,544.73,414.82,544,414.82 H514.25 C513.5,414.82,512.56,414.82,512.56,413.82 C512.56,412.82,513.5,412.82,514.2,412.82 Z " /><path
               id="path8888"
               fill="black"
               stroke-width="0"
               d="M568.65,410.04 L573.93,415.17 C581.69,422.04,584.69,424.73,584.69,429.71 C584.69,435.4,580.21,439.39,574.13,439.39 C568.49,439.39,564.8,434.79,564.8,430.36 C564.8,427.57,567.3,427.57,567.44,427.57 C568.3,427.57,570.03,428.17,570.03,430.21 C570.03,431.51,569.15,432.81,567.4,432.81 C567,432.81,566.9,432.81,566.75,432.76 C567.9,436,570.58,437.84,573.47,437.84 C578,437.84,580.16,433.79,580.16,429.71 C580.16,425.73,577.66,421.79,574.93,418.7 L565.36,408.04 C564.8,407.5,564.8,407.4,564.8,406.2 H583.28 L584.69,414.87 H583.44 C583.19,413.37,582.85,411.18,582.35,410.43 C581.99,410.04,578.71,410.04,577.61,410.04 Z " /><path
               id="path8890"
               fill="black"
               stroke-width="0"
               d="M603.76,394.25 L603.76,394.27 L603.76,394.3 L603.75,394.31 L603.75,394.33 L603.75,394.34 L603.74,394.36 L603.74,394.37 L603.73,394.39 L603.72,394.41 L603.71,394.43 L603.7,394.45 L603.69,394.48 L603.67,394.5 L603.65,394.53 L603.63,394.56 L603.61,394.59 L603.58,394.62 L603.55,394.66 L603.54,394.68 L603.52,394.7 L603.5,394.72 L603.48,394.74 L603.46,394.76 L603.44,394.79 L603.42,394.81 L603.4,394.83 L603.38,394.86 L603.36,394.88 L603.33,394.91 L603.31,394.94 L603.28,394.97 L603.25,395 L603.22,395.03 L603.19,395.06 L603.16,395.09 L603.13,395.12 L603.1,395.16 L603.06,395.19 L603.03,395.23 L602.99,395.26 L602.95,395.3 L602.91,395.34 C596.7,401.62,595.1,411.03,595.1,418.65 C595.1,427.32,596.99,436,603.12,442.21 C603.76,442.82,603.76,442.92,603.76,443.07 C603.76,443.42,603.57,443.56,603.27,443.56 C602.77,443.56,598.29,440.18,595.35,433.86 C592.8,428.37,592.21,422.84,592.21,418.65 C592.21,414.76,592.76,408.75,595.49,403.11 C598.48,396.98,602.77,393.75,603.27,393.75 C603.57,393.75,603.76,393.89,603.76,394.25 Z " /><path
               id="path8892"
               fill="black"
               stroke-width="0"
               d="M626.32,425.14 L626.18,425.14 L626.03,425.14 L625.88,425.13 L625.74,425.13 L625.6,425.12 L625.46,425.1 L625.39,425.09 L625.32,425.08 L625.26,425.06 L625.19,425.05 L625.12,425.03 L625.05,425.01 L624.98,424.99 L624.92,424.97 L624.85,424.94 L624.78,424.91 L624.72,424.88 L624.65,424.84 L624.58,424.8 L624.52,424.76 L624.45,424.71 L624.38,424.67 L624.32,424.61 L624.25,424.56 L624.19,424.5 L624.12,424.43 C623.32,423.68,623.23,422.84,623.23,422.5 C623.23,421.29,624.12,420.75,625.07,420.75 C626.51,420.75,627.87,421.95,627.87,423.93 C627.87,426.37,625.53,428.21,621.98,428.21 C615.26,428.21,608.64,421.09,608.64,414.07 C608.64,409.59,611.53,405.65,616.7,405.65 C623.82,405.65,628.01,410.93,628.01,411.53 C628.01,411.82,627.72,412.18,627.42,412.18 C627.17,412.18,627.07,412.07,626.76,411.68 C622.82,406.75,617.4,406.75,616.81,406.75 C613.67,406.75,612.32,409.18,612.32,412.18 C612.32,414.21,613.31,419.06,615.01,422.14 C616.56,424.98,619.29,427.12,622.03,427.12 C623.73,427.12,625.62,426.48,626.32,425.14 Z " /><path
               id="path8894"
               fill="black"
               stroke-width="0"
               d="M645.79,405.11 H644.6 C644.51,404.34,644.15,402.28,643.7,401.93 C643.43,401.73,640.75,401.73,640.26,401.73 H633.84 C637.5,404.96,638.72,405.93,640.81,407.57 C643.39,409.64,645.79,411.79,645.79,415.11 C645.79,419.32,642.1,421.9,637.64,421.9 C633.32,421.9,630.39,418.87,630.39,415.67 C630.39,413.89,631.89,413.71,632.25,413.71 C633.07,413.71,634.09,414.31,634.09,415.56 C634.09,416.18,633.84,417.4,632.03,417.4 C633.1,419.87,635.48,420.64,637.12,420.64 C640.6,420.64,642.42,417.93,642.42,415.11 C642.42,412.07,640.26,409.67,639.14,408.42 L630.75,400.12 C630.39,399.81,630.39,399.73,630.39,398.76 H644.75 Z " /><path
               id="path8896"
               fill="black"
               stroke-width="0"
               d="M658.44,410.09 L658.4,409.91 L658.35,409.74 L658.31,409.58 L658.26,409.43 L658.22,409.28 L658.17,409.15 L658.13,409.02 L658.08,408.9 L658.02,408.79 L657.96,408.68 L657.9,408.58 L657.83,408.49 L657.75,408.4 L657.66,408.33 L657.57,408.25 L657.46,408.19 L657.35,408.12 L657.23,408.07 L657.09,408.02 L656.94,407.97 L656.78,407.93 L656.69,407.91 L656.61,407.9 L656.51,407.88 L656.41,407.86 L656.31,407.85 L656.21,407.84 L656.1,407.83 L655.99,407.81 L655.87,407.8 L655.75,407.79 L655.62,407.79 L655.49,407.78 L655.36,407.77 L655.21,407.77 L655.07,407.76 L654.92,407.76 L654.76,407.75 L654.6,407.75 L654.44,407.75 L654.27,407.75 L654.09,407.75 L653.91,407.75 C653.07,407.75,652.52,407.75,652.52,406.79 C652.52,406.2,652.96,406.2,653.91,406.2 H670.4 L669.5,407.75 H663.88 C663.18,407.75,663.08,407.75,662.77,407.79 C662.28,407.84,662.13,407.89,662.13,408.29 C662.13,408.43,662.13,408.54,662.38,409.43 L669.21,436.79 C669.65,438.53,669.75,438.68,671.9,438.68 H677.22 C682.11,438.68,686.24,436.04,686.24,429.46 C686.24,427.03,685.24,418.86,681,413.37 C679.57,411.53,675.63,407.75,669.5,407.75 L670.4,406.2 C680.75,406.2,690.58,416.71,690.58,427.62 C690.58,434.65,686.35,440.23,678.86,440.23 H662.13 C661.18,440.23,660.63,440.23,660.63,439.28 C660.63,438.68,661.08,438.68,662.08,438.68 C662.72,438.68,663.63,438.64,664.22,438.59 C665.02,438.48,665.32,438.34,665.32,437.79 C665.32,437.59,665.27,437.43,665.11,436.84 Z " /><path
               id="path8898"
               fill="black"
               stroke-width="0"
               d="M724.53,417.65 H738.44 C739.12,417.65,740.08,417.65,740.08,418.65 C740.08,419.65,739.12,419.65,738.44,419.65 H724.53 V433.61 C724.53,434.29,724.53,435.25,723.53,435.25 C722.55,435.25,722.55,434.29,722.55,433.61 V419.65 H708.59 C707.89,419.65,706.95,419.65,706.95,418.65 C706.95,417.65,707.89,417.65,708.59,417.65 H722.55 V403.71 C722.55,403.01,722.55,402.06,723.53,402.06 C724.53,402.06,724.53,403.01,724.53,403.71 Z " /><path
               id="path8900"
               fill="black"
               stroke-width="0"
               d="M773.69,425.14 L773.54,425.14 L773.4,425.14 L773.25,425.13 L773.11,425.13 L772.97,425.12 L772.83,425.1 L772.76,425.09 L772.69,425.08 L772.62,425.06 L772.55,425.05 L772.49,425.03 L772.42,425.01 L772.35,424.99 L772.28,424.97 L772.22,424.94 L772.15,424.91 L772.08,424.88 L772.02,424.84 L771.95,424.8 L771.88,424.76 L771.82,424.71 L771.75,424.67 L771.69,424.61 L771.62,424.56 L771.55,424.5 L771.49,424.43 C770.69,423.68,770.6,422.84,770.6,422.5 C770.6,421.29,771.49,420.75,772.44,420.75 C773.88,420.75,775.24,421.95,775.24,423.93 C775.24,426.37,772.9,428.21,769.35,428.21 C762.63,428.21,756,421.09,756,414.07 C756,409.59,758.9,405.65,764.07,405.65 C771.19,405.65,775.38,410.93,775.38,411.53 C775.38,411.82,775.08,412.18,774.78,412.18 C774.53,412.18,774.44,412.07,774.13,411.68 C770.19,406.75,764.77,406.75,764.18,406.75 C761.03,406.75,759.69,409.18,759.69,412.18 C759.69,414.21,760.68,419.06,762.38,422.14 C763.93,424.98,766.66,427.12,769.4,427.12 C771.1,427.12,772.99,426.48,773.69,425.14 Z " /><path
               id="path8902"
               fill="black"
               stroke-width="0"
               d="M787.23,420.92 L787.23,420.96 L787.23,421 L787.23,421.05 L787.23,421.09 L787.23,421.12 L787.23,421.16 L787.23,421.2 L787.23,421.23 L787.22,421.27 L787.22,421.3 L787.22,421.33 L787.22,421.36 L787.22,421.39 L787.21,421.42 L787.21,421.45 L787.2,421.47 L787.2,421.5 L787.2,421.52 L787.19,421.55 L787.19,421.57 L787.17,421.61 L787.16,421.65 L787.14,421.68 L787.12,421.71 L787.1,421.74 L787.08,421.77 L787.05,421.79 L787.02,421.81 L786.98,421.83 L786.95,421.84 L786.91,421.85 L786.86,421.87 L786.84,421.87 L786.81,421.87 L786.79,421.88 L786.76,421.88 L786.74,421.89 L786.71,421.89 L786.68,421.89 L786.65,421.89 L786.61,421.89 L786.58,421.9 L786.55,421.9 L786.51,421.9 L786.47,421.9 L786.44,421.9 L786.4,421.9 L786.36,421.9 L786.32,421.9 L786.27,421.9 L786.23,421.9 L786.18,421.9 C783.95,419.7,780.79,419.67,779.35,419.67 V418.42 C780.2,418.42,782.5,418.42,784.4,419.39 V401.62 C784.4,400.46,784.4,400.01,780.92,400.01 H779.6 V398.76 C780.23,398.79,784.51,398.9,785.81,398.9 C786.89,398.9,791.28,398.79,792.04,398.76 V400.01 H790.72 C787.23,400.01,787.23,400.46,787.23,401.62 Z " /><path
               id="path8904"
               fill="black"
               stroke-width="0"
               d="M814.52,421.25 L814.55,421.38 L814.59,421.53 L814.63,421.69 L814.67,421.87 L814.73,422.06 L814.79,422.27 L814.85,422.49 L814.92,422.71 L815,422.94 L815.09,423.18 L815.19,423.43 L815.29,423.67 L815.4,423.92 L815.52,424.17 L815.65,424.42 L815.79,424.67 L815.93,424.91 L816.09,425.15 L816.26,425.38 L816.43,425.6 L816.62,425.82 L816.82,426.02 L817.03,426.21 L817.25,426.39 L817.48,426.55 L817.73,426.69 L817.85,426.76 L817.98,426.82 L818.12,426.87 L818.25,426.92 L818.39,426.97 L818.53,427.01 L818.68,427.04 L818.83,427.07 L818.98,427.09 L819.14,427.11 L819.29,427.12 L819.46,427.12 C819.71,427.12,820.9,427.12,821.94,426.48 C820.55,426.23,819.55,424.98,819.55,423.79 C819.55,423,820.1,422.04,821.44,422.04 C822.53,422.04,824.13,422.93,824.13,424.93 C824.13,427.53,821.19,428.21,819.5,428.21 C816.61,428.21,814.86,425.57,814.27,424.43 C813.02,427.71,810.33,428.21,808.9,428.21 C803.71,428.21,800.86,421.79,800.86,420.54 C800.86,420.04,801.36,420.04,801.47,420.04 C801.86,420.04,802.02,420.15,802.11,420.59 C803.8,425.87,807.1,427.12,808.78,427.12 C809.74,427.12,811.47,426.68,811.47,423.79 C811.47,422.25,810.63,418.9,808.78,411.93 C807.99,408.84,806.25,406.75,804.05,406.75 C803.75,406.75,802.61,406.75,801.57,407.4 C802.82,407.64,803.91,408.68,803.91,410.09 C803.91,411.43,802.82,411.82,802.07,411.82 C800.57,411.82,799.32,410.53,799.32,408.93 C799.32,406.65,801.82,405.65,804,405.65 C807.3,405.65,809.08,409.14,809.24,409.43 C809.83,407.59,811.63,405.65,814.61,405.65 C819.75,405.65,822.6,412.07,822.6,413.32 C822.6,413.82,822.15,413.82,821.99,413.82 C821.55,413.82,821.44,413.62,821.35,413.28 C819.71,407.95,816.32,406.75,814.72,406.75 C812.77,406.75,811.97,408.34,811.97,410.04 C811.97,411.14,812.27,412.23,812.83,414.42 Z " /><path
               id="path8906"
               fill="black"
               stroke-width="0"
               d="M840.71,418.65 L840.71,419.02 L840.7,419.41 L840.69,419.8 L840.68,420.21 L840.64,421.05 L840.58,421.93 L840.5,422.85 L840.39,423.8 L840.26,424.77 L840.09,425.78 L839.9,426.8 L839.67,427.83 L839.4,428.88 L839.09,429.94 L838.74,431.01 L838.35,432.08 L838.14,432.61 L837.91,433.14 L837.68,433.67 L837.43,434.2 C834.44,440.32,830.16,443.56,829.66,443.56 C829.36,443.56,829.16,443.37,829.16,443.07 C829.16,442.92,829.16,442.82,830.1,441.92 C834.99,437,837.83,429.07,837.83,418.65 C837.83,410.14,835.99,401.37,829.8,395.09 C829.16,394.5,829.16,394.39,829.16,394.25 C829.16,393.95,829.36,393.75,829.66,393.75 C830.16,393.75,834.63,397.14,837.58,403.46 C840.11,408.93,840.71,414.46,840.71,418.65 Z " /></g></g></g>    </g>
    <g
       id="g9718"
       transform="matrix(0.69619974,0,0,0.69619974,122.4928,43.817822)">
      <g
         word-spacing="normal"
         letter-spacing="normal"
         font-size-adjust="none"
         font-stretch="normal"
         font-weight="normal"
         font-variant="normal"
         font-style="normal"
         stroke-miterlimit="10.433"
         xml:space="preserve"
         transform="matrix(0.10461307,0,0,-0.10461307,-18.307287,119.73853)"
         id="g9716"
         style="font-style:normal;font-variant:normal;font-weight:normal;font-stretch:normal;letter-spacing:normal;word-spacing:normal;text-anchor:start;fill:none;fill-opacity:1;fill-rule:evenodd;stroke:#000000;stroke-linecap:butt;stroke-linejoin:miter;stroke-miterlimit:10.43299961;stroke-dasharray:none;stroke-dashoffset:0;stroke-opacity:1"><path
           id="path9684"
           d="m 465.79,426.12 h 4.68 c 0.99,0 1.49,0 1.49,1 0,0.55 -0.5,0.55 -1.39,0.55 h -4.39 c 1.79,7.08 2.04,8.08 2.04,8.37 0,0.85 -0.59,1.35 -1.43,1.35 -0.16,0 -1.55,-0.05 -2,-1.8 l -1.94,-7.92 h -4.69 c -1,0 -1.5,0 -1.5,-0.94 0,-0.61 0.41,-0.61 1.41,-0.61 h 4.37 c -3.58,-14.14 -3.78,-14.98 -3.78,-15.89 0,-2.69 1.89,-4.58 4.58,-4.58 5.08,0 7.92,7.27 7.92,7.67 0,0.5 -0.39,0.5 -0.59,0.5 -0.46,0 -0.5,-0.15 -0.75,-0.7 -2.14,-5.17 -4.78,-6.37 -6.47,-6.37 -1.05,0 -1.55,0.65 -1.55,2.29 0,1.19 0.09,1.55 0.3,2.39 z"
           inkscape:connector-curvature="0"
           style="fill:#000000;stroke-width:0" /><path
           id="path9686"
           d="m 491.11,405.11 h -1.18 c -0.1,-0.77 -0.46,-2.83 -0.91,-3.18 -0.27,-0.2 -2.95,-0.2 -3.44,-0.2 h -6.42 c 3.66,3.23 4.88,4.2 6.97,5.84 2.58,2.07 4.98,4.22 4.98,7.54 0,4.21 -3.68,6.79 -8.15,6.79 -4.32,0 -7.25,-3.03 -7.25,-6.23 0,-1.78 1.5,-1.96 1.86,-1.96 0.82,0 1.84,0.6 1.84,1.85 0,0.62 -0.25,1.84 -2.06,1.84 1.08,2.47 3.45,3.24 5.09,3.24 3.49,0 5.3,-2.71 5.3,-5.53 0,-3.04 -2.16,-5.44 -3.28,-6.69 l -8.39,-8.3 c -0.36,-0.31 -0.36,-0.39 -0.36,-1.36 h 14.36 z"
           inkscape:connector-curvature="0"
           style="fill:#000000;stroke-width:0" /><path
           id="path9688"
           d="m 544,422.5 h 0.14 0.14 0.14 l 0.08,0.01 h 0.07 l 0.07,0.01 0.07,0.01 0.07,0.01 0.07,0.01 0.07,0.01 0.07,0.02 0.06,0.02 0.07,0.02 0.06,0.02 0.05,0.03 0.06,0.03 0.05,0.04 0.05,0.03 0.05,0.05 0.04,0.04 0.04,0.05 0.02,0.03 0.02,0.03 0.02,0.02 0.01,0.03 0.02,0.03 0.01,0.04 0.01,0.03 0.01,0.04 0.01,0.03 0.01,0.04 0.01,0.04 v 0.04 l 0.01,0.04 v 0.04 0.04 0.05 c 0,1 -0.95,1 -1.64,1 H 514.2 c -0.7,0 -1.64,0 -1.64,-1 0,-0.98 0.94,-0.98 1.69,-0.98 z"
           inkscape:connector-curvature="0"
           style="fill:#000000;stroke-width:0" /><path
           id="path9690"
           d="m 544.04,412.82 h 0.07 0.06 l 0.14,0.01 h 0.14 0.07 l 0.07,0.01 0.07,0.01 h 0.07 l 0.07,0.01 0.06,0.02 0.07,0.01 0.07,0.02 0.06,0.02 0.06,0.02 0.06,0.02 0.06,0.03 0.05,0.03 0.06,0.04 0.05,0.04 0.04,0.04 0.04,0.05 0.02,0.02 0.02,0.03 0.02,0.02 0.02,0.03 0.02,0.03 0.01,0.03 0.02,0.03 0.01,0.03 0.01,0.04 0.01,0.03 0.01,0.04 0.01,0.04 0.01,0.04 v 0.04 l 0.01,0.04 v 0.04 0.05 0.04 c 0,1 -0.95,1 -1.68,1 h -29.75 c -0.75,0 -1.69,0 -1.69,-1 0,-1 0.94,-1 1.64,-1 z"
           inkscape:connector-curvature="0"
           style="fill:#000000;stroke-width:0" /><path
           id="path9692"
           d="m 568.65,410.04 5.28,5.13 c 7.76,6.87 10.76,9.56 10.76,14.54 0,5.69 -4.48,9.68 -10.56,9.68 -5.64,0 -9.33,-4.6 -9.33,-9.03 0,-2.79 2.5,-2.79 2.64,-2.79 0.86,0 2.59,0.6 2.59,2.64 0,1.3 -0.88,2.6 -2.63,2.6 -0.4,0 -0.5,0 -0.65,-0.05 1.15,3.24 3.83,5.08 6.72,5.08 4.53,0 6.69,-4.05 6.69,-8.13 0,-3.98 -2.5,-7.92 -5.23,-11.01 l -9.57,-10.66 c -0.56,-0.54 -0.56,-0.64 -0.56,-1.84 h 18.48 l 1.41,8.67 h -1.25 c -0.25,-1.5 -0.59,-3.69 -1.09,-4.44 -0.36,-0.39 -3.64,-0.39 -4.74,-0.39 z"
           inkscape:connector-curvature="0"
           style="fill:#000000;stroke-width:0" /><path
           id="path9694"
           d="m 607.86,389.27 v 0.02 0.02 0.01 l -0.01,0.02 v 0.02 0.01 0.02 l -0.01,0.01 v 0.02 l -0.01,0.01 v 0.02 l -0.01,0.01 v 0.01 l -0.01,0.02 v 0.01 l -0.01,0.01 -0.02,0.03 -0.01,0.02 -0.02,0.03 -0.02,0.02 -0.01,0.03 -0.02,0.03 -0.02,0.02 -0.01,0.02 -0.01,0.01 c -2.3,2.44 -5.68,6.49 -7.77,14.6 -1.16,4.53 -1.59,9.67 -1.59,14.29 0,13.11 3.14,22.28 9.11,28.75 0.45,0.46 0.45,0.55 0.45,0.66 0,0.5 -0.41,0.5 -0.59,0.5 -0.75,0 -3.44,-3 -4.1,-3.75 -5.08,-6.02 -8.31,-14.98 -8.31,-26.09 0,-7.08 1.23,-17.1 7.76,-25.52 0.5,-0.59 3.74,-4.39 4.65,-4.39 0.18,0 0.59,0 0.59,0.5 z"
           inkscape:connector-curvature="0"
           style="fill:#000000;stroke-width:0" /><path
           id="path9696"
           d="m 624.46,428.48 -0.03,-0.11 -0.02,-0.1 -0.03,-0.1 -0.02,-0.09 -0.02,-0.09 -0.03,-0.09 -0.03,-0.08 -0.03,-0.07 -0.04,-0.07 -0.03,-0.07 -0.05,-0.06 -0.04,-0.06 -0.05,-0.05 -0.06,-0.05 -0.06,-0.05 -0.07,-0.04 -0.08,-0.04 -0.09,-0.03 -0.09,-0.04 -0.1,-0.03 -0.06,-0.01 -0.05,-0.01 -0.06,-0.02 -0.06,-0.01 -0.07,-0.01 -0.07,-0.01 -0.06,-0.01 -0.08,-0.01 h -0.07 l -0.08,-0.01 -0.08,-0.01 h -0.09 l -0.08,-0.01 -0.09,-0.01 h -0.1 -0.09 l -0.1,-0.01 h -0.11 -0.1 -0.12 l -0.11,-0.01 h -0.12 -0.12 -0.12 c -0.63,0 -1.05,0 -1.05,-0.76 0,-0.49 0.42,-0.49 1.05,-0.49 h 12.43 l -0.62,1.25 h -4.74 c -1.07,0 -1.11,0.05 -1.11,0.36 0,0.03 0,0.2 0.13,0.72 l 4.78,19.03 c 0.28,1.08 0.31,1.19 1.78,1.19 h 4.45 c 3.91,0 7.19,-1.95 7.19,-6.69 0,-0.81 -0.36,-6.83 -3.84,-10.81 -1.36,-1.56 -4.35,-3.8 -8.64,-3.8 l 0.62,-1.25 c 7.74,0 15.16,7.11 15.16,14.7 0,5.1 -3.52,9.1 -9.19,9.1 h -12.69 c -0.7,0 -1.11,0 -1.11,-0.77 0,-0.48 0.38,-0.48 1.15,-0.48 0.56,0 0.7,0 1.32,-0.08 0.71,-0.06 0.77,-0.14 0.77,-0.48 0,-0.07 0,-0.24 -0.14,-0.77 z"
           inkscape:connector-curvature="0"
           style="fill:#000000;stroke-width:0" /><polyline
           id="polyline9698"
           points="616,418 653.32,418 653.32,420.04 616,420.04 "
           style="fill:#000000;fill-rule:nonzero;stroke-width:0" /><path
           id="path9700"
           d="m 631.34,402.38 -0.11,-0.02 -0.11,-0.02 -0.11,-0.03 -0.11,-0.04 -0.1,-0.04 -0.09,-0.04 -0.09,-0.04 -0.09,-0.05 -0.08,-0.05 -0.08,-0.06 -0.07,-0.05 -0.08,-0.06 -0.06,-0.06 -0.07,-0.07 -0.06,-0.06 -0.05,-0.07 -0.05,-0.07 -0.05,-0.07 -0.05,-0.08 -0.04,-0.07 -0.03,-0.07 -0.04,-0.08 -0.03,-0.07 -0.03,-0.08 -0.02,-0.08 -0.02,-0.07 -0.02,-0.08 -0.01,-0.07 -0.01,-0.08 -0.01,-0.07 -0.01,-0.08 v -0.07 c 0,-0.94 0.74,-1.28 1.36,-1.28 0.77,0 1.99,0.55 1.99,2.22 0,2.37 -2.72,3.03 -4.6,3.03 -5.23,0 -10.08,-4.8 -10.08,-9.64 0,-3 2.1,-6.06 6.46,-6.06 5.89,0 8.64,3.43 8.64,3.93 0,0.21 -0.31,0.6 -0.6,0.6 -0.2,0 -0.28,-0.08 -0.56,-0.36 -2.72,-3.21 -6.79,-3.21 -7.42,-3.21 -2.5,0 -3.63,1.71 -3.63,3.88 0,1 0.5,4.8 2.32,7.2 1.31,1.72 3.12,2.69 4.87,2.69 0.49,0 2.16,-0.06 3.03,-1.05 z"
           inkscape:connector-curvature="0"
           style="fill:#000000;stroke-width:0" /><path
           id="path9702"
           d="m 648.51,388.81 h -1.04 c -0.08,-0.48 -0.33,-2.01 -0.72,-2.26 -0.21,-0.16 -2.3,-0.16 -2.68,-0.16 h -4.87 c 1.64,1.22 3.48,2.61 4.98,3.61 2.24,1.55 4.33,3 4.33,5.64 0,3.19 -3.01,4.95 -6.58,4.95 -3.36,0 -5.83,-1.95 -5.83,-4.39 0,-1.29 1.1,-1.51 1.46,-1.51 0.67,0 1.47,0.45 1.47,1.47 0,0.89 -0.66,1.39 -1.43,1.46 0.69,1.13 2.15,1.88 3.82,1.88 2.4,0 4.42,-1.45 4.42,-3.89 0,-2.09 -1.44,-3.69 -3.36,-5.31 l -6.08,-5.16 c -0.25,-0.22 -0.26,-0.22 -0.3,-0.39 V 384 h 11.58 z"
           inkscape:connector-curvature="0"
           style="fill:#000000;stroke-width:0" /><path
           id="path9704"
           d="m 690.7,417.65 h 13.9 c 0.69,0 1.64,0 1.64,1 0,1 -0.95,1 -1.64,1 h -13.9 v 13.96 c 0,0.68 0,1.64 -1,1.64 -0.99,0 -0.99,-0.96 -0.99,-1.64 v -13.96 h -13.95 c -0.71,0 -1.64,0 -1.64,-1 0,-1 0.93,-1 1.64,-1 h 13.95 v -13.94 c 0,-0.7 0,-1.65 0.99,-1.65 1,0 1,0.95 1,1.65 z"
           inkscape:connector-curvature="0"
           style="fill:#000000;stroke-width:0" /><path
           id="path9706"
           d="m 742.11,429.45 -0.03,-0.11 -0.04,-0.12 -0.04,-0.12 -0.05,-0.12 -0.06,-0.12 -0.05,-0.13 -0.07,-0.13 -0.06,-0.12 -0.07,-0.13 -0.08,-0.13 -0.08,-0.13 -0.09,-0.12 -0.08,-0.13 -0.1,-0.12 -0.09,-0.12 -0.11,-0.12 -0.1,-0.12 -0.11,-0.11 -0.12,-0.1 -0.11,-0.1 -0.13,-0.1 -0.12,-0.09 -0.13,-0.08 -0.14,-0.08 -0.13,-0.07 -0.14,-0.06 -0.15,-0.05 -0.15,-0.05 -0.15,-0.04 -0.16,-0.02 -0.16,-0.02 h -0.16 c -0.11,0 -1.16,0 -1.89,0.48 1.44,0.45 1.53,1.72 1.53,1.92 0,0.77 -0.59,1.3 -1.39,1.3 -0.97,0 -1.99,-0.84 -1.99,-2.14 0,-1.74 1.96,-2.53 3.66,-2.53 1.61,0 3.03,1 3.91,2.47 0.82,-1.85 2.75,-2.47 4.14,-2.47 4.01,0 6.14,4.34 6.14,5.33 0,0.45 -0.46,0.45 -0.56,0.45 -0.49,0 -0.52,-0.17 -0.66,-0.59 -0.74,-2.41 -2.83,-4.22 -4.78,-4.22 -1.39,0 -2.13,0.93 -2.13,2.26 0,0.91 0.85,4.08 1.82,7.96 0.7,2.67 2.26,3.54 3.42,3.54 0.06,0 1.14,0 1.87,-0.48 -1.11,-0.31 -1.53,-1.3 -1.53,-1.92 0,-0.77 0.59,-1.29 1.39,-1.29 0.81,0 1.95,0.66 1.95,2.13 0,1.95 -2.23,2.53 -3.62,2.53 -1.73,0 -3.14,-1.14 -3.91,-2.47 -0.62,1.44 -2.22,2.47 -4.17,2.47 -3.9,0 -6.14,-4.28 -6.14,-5.33 0,-0.45 0.5,-0.45 0.59,-0.45 0.46,0 0.49,0.14 0.68,0.59 0.85,2.72 3.06,4.22 4.76,4.22 1.16,0 2.09,-0.62 2.09,-2.29 0,-0.71 -0.42,-2.44 -0.73,-3.63 z"
           inkscape:connector-curvature="0"
           style="fill:#000000;stroke-width:0" /><polyline
           id="polyline9708"
           points="726,418 763.32,418 763.32,420.04 726,420.04 "
           style="fill:#000000;fill-rule:nonzero;stroke-width:0" /><path
           id="path9710"
           d="m 741.39,402.38 -0.12,-0.02 -0.11,-0.02 -0.11,-0.03 -0.1,-0.04 -0.1,-0.04 -0.1,-0.04 -0.09,-0.04 -0.09,-0.05 -0.08,-0.05 -0.08,-0.06 -0.07,-0.05 -0.07,-0.06 -0.07,-0.06 -0.06,-0.07 -0.06,-0.06 -0.06,-0.07 -0.05,-0.07 -0.05,-0.07 -0.04,-0.08 -0.04,-0.07 -0.04,-0.07 -0.04,-0.08 -0.03,-0.07 -0.02,-0.08 -0.03,-0.08 -0.02,-0.07 -0.02,-0.08 -0.01,-0.07 -0.01,-0.08 -0.01,-0.07 v -0.08 l -0.01,-0.07 c 0,-0.94 0.74,-1.28 1.37,-1.28 0.76,0 1.98,0.55 1.98,2.22 0,2.37 -2.72,3.03 -4.6,3.03 -5.23,0 -10.07,-4.8 -10.07,-9.64 0,-3 2.09,-6.06 6.45,-6.06 5.89,0 8.64,3.43 8.64,3.93 0,0.21 -0.31,0.6 -0.59,0.6 -0.21,0 -0.28,-0.08 -0.56,-0.36 -2.72,-3.21 -6.8,-3.21 -7.43,-3.21 -2.5,0 -3.62,1.71 -3.62,3.88 0,1 0.5,4.8 2.31,7.2 1.31,1.72 3.12,2.69 4.87,2.69 0.49,0 2.16,-0.06 3.04,-1.05 z"
           inkscape:connector-curvature="0"
           style="fill:#000000;stroke-width:0" /><path
           id="path9712"
           d="m 753.8,399.84 v 0.04 0.03 0.03 0.04 0.03 0.03 0.02 0.03 l -0.01,0.03 v 0.02 0.03 0.02 0.02 l -0.01,0.03 v 0.02 0.02 l -0.01,0.02 v 0.02 l -0.01,0.03 -0.01,0.03 -0.02,0.03 -0.01,0.03 -0.02,0.02 -0.02,0.02 -0.02,0.02 -0.03,0.02 -0.02,0.01 -0.03,0.01 -0.03,0.01 -0.04,0.01 -0.04,0.01 -0.04,0.01 h -0.02 -0.02 -0.03 l -0.02,0.01 h -0.03 -0.02 -0.03 -0.03 -0.03 -0.03 -0.03 -0.03 -0.03 -0.04 -0.03 -0.04 -0.04 -0.03 C 751.13,399 748.36,399 747.86,399 h -0.42 v -1.09 h 0.42 c 0.58,0 2.19,0.06 3.64,0.68 v -12.45 c 0,-0.76 0,-1.05 -2.64,-1.05 h -1.25 V 384 c 1.38,0.09 3.6,0.09 5.04,0.09 1.45,0 3.67,0 5.03,-0.09 v 1.09 h -1.24 c -2.64,0 -2.64,0.29 -2.64,1.05 z"
           inkscape:connector-curvature="0"
           style="fill:#000000;stroke-width:0" /><path
           id="path9714"
           d="m 784.52,418.61 -0.01,1.36 -0.05,1.43 -0.1,1.47 -0.13,1.53 -0.2,1.57 -0.25,1.61 -0.31,1.63 -0.39,1.66 -0.22,0.83 -0.24,0.84 -0.26,0.84 -0.29,0.84 -0.3,0.84 -0.33,0.84 -0.35,0.85 -0.38,0.83 -0.4,0.84 -0.42,0.83 -0.46,0.83 -0.48,0.82 -0.51,0.82 -0.53,0.81 -0.57,0.8 -0.6,0.8 c -0.5,0.59 -3.73,4.39 -4.62,4.39 -0.25,0 -0.61,-0.11 -0.61,-0.5 0,-0.2 0.11,-0.36 0.29,-0.5 2.4,-2.59 5.65,-6.63 7.68,-14.55 1.15,-4.53 1.61,-9.67 1.61,-14.29 0,-5.04 -0.46,-10.13 -1.75,-15 -1.89,-6.99 -4.83,-10.97 -7.38,-13.75 -0.45,-0.46 -0.45,-0.55 -0.45,-0.66 0,-0.39 0.36,-0.5 0.61,-0.5 0.73,0 3.48,3.05 4.08,3.75 5.07,6.02 8.32,14.98 8.32,26.09 z"
           inkscape:connector-curvature="0"
           style="fill:#000000;stroke-width:0" /></g>    </g>
    <g
       id="g9930"
       transform="matrix(0.69619974,0,0,0.69619974,122.4928,69.217822)">
      <g
         word-spacing="normal"
         letter-spacing="normal"
         font-size-adjust="none"
         font-stretch="normal"
         font-weight="normal"
         font-variant="normal"
         font-style="normal"
         stroke-miterlimit="10.433"
         xml:space="preserve"
         transform="matrix(0.10461307,0,0,-0.10461307,-18.307287,119.73853)"
         id="g9928"
         style="font-style:normal;font-variant:normal;font-weight:normal;font-stretch:normal;letter-spacing:normal;word-spacing:normal;text-anchor:start;fill:none;fill-opacity:1;fill-rule:evenodd;stroke:#000000;stroke-linecap:butt;stroke-linejoin:miter;stroke-miterlimit:10.43299961;stroke-dasharray:none;stroke-dashoffset:0;stroke-opacity:1"><path
           id="path9910"
           d="m 465.79,426.12 h 4.68 c 0.99,0 1.49,0 1.49,1 0,0.55 -0.5,0.55 -1.39,0.55 h -4.39 c 1.79,7.08 2.04,8.08 2.04,8.37 0,0.85 -0.59,1.35 -1.43,1.35 -0.16,0 -1.55,-0.05 -2,-1.8 l -1.94,-7.92 h -4.69 c -1,0 -1.5,0 -1.5,-0.94 0,-0.61 0.41,-0.61 1.41,-0.61 h 4.37 c -3.58,-14.14 -3.78,-14.98 -3.78,-15.89 0,-2.69 1.89,-4.58 4.58,-4.58 5.08,0 7.92,7.27 7.92,7.67 0,0.5 -0.39,0.5 -0.59,0.5 -0.46,0 -0.5,-0.15 -0.75,-0.7 -2.14,-5.17 -4.78,-6.37 -6.47,-6.37 -1.05,0 -1.55,0.65 -1.55,2.29 0,1.19 0.09,1.55 0.3,2.39 z"
           inkscape:connector-curvature="0"
           style="fill:#000000;stroke-width:0" /><path
           id="path9912"
           d="m 485.19,420.92 v 0.04 0.04 0.05 0.04 0.03 0.04 0.04 0.03 l -0.01,0.04 v 0.03 0.03 0.03 0.03 l -0.01,0.03 v 0.03 0.02 l -0.01,0.03 v 0.02 l -0.01,0.03 v 0.02 l -0.02,0.04 -0.01,0.04 -0.02,0.03 -0.02,0.03 -0.02,0.03 -0.02,0.03 -0.03,0.02 -0.03,0.02 -0.03,0.02 -0.04,0.01 -0.04,0.01 -0.05,0.02 h -0.02 -0.02 l -0.03,0.01 h -0.03 l -0.02,0.01 h -0.03 -0.03 -0.03 -0.03 l -0.04,0.01 h -0.03 -0.04 -0.03 -0.04 -0.04 -0.04 -0.04 -0.05 -0.04 -0.05 c -2.23,-2.2 -5.39,-2.23 -6.82,-2.23 v -1.25 c 0.84,0 3.14,0 5.04,0.97 v -17.77 c 0,-1.16 0,-1.61 -3.48,-1.61 h -1.31 v -1.25 c 0.62,0.03 4.9,0.14 6.2,0.14 1.08,0 5.47,-0.11 6.23,-0.14 v 1.25 h -1.32 c -3.49,0 -3.49,0.45 -3.49,1.61 z"
           inkscape:connector-curvature="0"
           style="fill:#000000;stroke-width:0" /><path
           id="path9914"
           d="m 544,422.5 h 0.14 0.14 0.14 l 0.08,0.01 h 0.07 l 0.07,0.01 0.07,0.01 0.07,0.01 0.07,0.01 0.07,0.01 0.07,0.02 0.06,0.02 0.07,0.02 0.06,0.02 0.05,0.03 0.06,0.03 0.05,0.04 0.05,0.03 0.05,0.05 0.04,0.04 0.04,0.05 0.02,0.03 0.02,0.03 0.02,0.02 0.01,0.03 0.02,0.03 0.01,0.04 0.01,0.03 0.01,0.04 0.01,0.03 0.01,0.04 0.01,0.04 v 0.04 l 0.01,0.04 v 0.04 0.04 0.05 c 0,1 -0.95,1 -1.64,1 H 514.2 c -0.7,0 -1.64,0 -1.64,-1 0,-0.98 0.94,-0.98 1.69,-0.98 z"
           inkscape:connector-curvature="0"
           style="fill:#000000;stroke-width:0" /><path
           id="path9916"
           d="m 544.04,412.82 h 0.07 0.06 l 0.14,0.01 h 0.14 0.07 l 0.07,0.01 0.07,0.01 h 0.07 l 0.07,0.01 0.06,0.02 0.07,0.01 0.07,0.02 0.06,0.02 0.06,0.02 0.06,0.02 0.06,0.03 0.05,0.03 0.06,0.04 0.05,0.04 0.04,0.04 0.04,0.05 0.02,0.02 0.02,0.03 0.02,0.02 0.02,0.03 0.02,0.03 0.01,0.03 0.02,0.03 0.01,0.03 0.01,0.04 0.01,0.03 0.01,0.04 0.01,0.04 0.01,0.04 v 0.04 l 0.01,0.04 v 0.04 0.05 0.04 c 0,1 -0.95,1 -1.68,1 h -29.75 c -0.75,0 -1.69,0 -1.69,-1 0,-1 0.94,-1 1.64,-1 z"
           inkscape:connector-curvature="0"
           style="fill:#000000;stroke-width:0" /><path
           id="path9918"
           d="m 568.65,410.04 5.28,5.13 c 7.76,6.87 10.76,9.56 10.76,14.54 0,5.69 -4.48,9.68 -10.56,9.68 -5.64,0 -9.33,-4.6 -9.33,-9.03 0,-2.79 2.5,-2.79 2.64,-2.79 0.86,0 2.59,0.6 2.59,2.64 0,1.3 -0.88,2.6 -2.63,2.6 -0.4,0 -0.5,0 -0.65,-0.05 1.15,3.24 3.83,5.08 6.72,5.08 4.53,0 6.69,-4.05 6.69,-8.13 0,-3.98 -2.5,-7.92 -5.23,-11.01 l -9.57,-10.66 c -0.56,-0.54 -0.56,-0.64 -0.56,-1.84 h 18.48 l 1.41,8.67 h -1.25 c -0.25,-1.5 -0.59,-3.69 -1.09,-4.44 -0.36,-0.39 -3.64,-0.39 -4.74,-0.39 z"
           inkscape:connector-curvature="0"
           style="fill:#000000;stroke-width:0" /><path
           id="path9920"
           d="m 609.15,429.45 -0.03,-0.11 -0.04,-0.12 -0.05,-0.12 -0.04,-0.12 -0.06,-0.12 -0.06,-0.13 -0.06,-0.13 -0.06,-0.12 -0.08,-0.13 -0.07,-0.13 -0.08,-0.13 -0.09,-0.12 -0.09,-0.13 -0.09,-0.12 -0.1,-0.12 -0.1,-0.12 -0.1,-0.12 -0.11,-0.11 -0.12,-0.1 -0.11,-0.1 -0.13,-0.1 -0.12,-0.09 -0.13,-0.08 -0.14,-0.08 -0.13,-0.07 -0.15,-0.06 -0.14,-0.05 -0.15,-0.05 -0.15,-0.04 -0.16,-0.02 -0.16,-0.02 h -0.16 c -0.11,0 -1.16,0 -1.89,0.48 1.43,0.45 1.53,1.72 1.53,1.92 0,0.77 -0.6,1.3 -1.39,1.3 -0.97,0 -1.99,-0.84 -1.99,-2.14 0,-1.74 1.95,-2.53 3.66,-2.53 1.61,0 3.03,1 3.91,2.47 0.82,-1.85 2.75,-2.47 4.13,-2.47 4.02,0 6.15,4.34 6.15,5.33 0,0.45 -0.46,0.45 -0.57,0.45 -0.48,0 -0.51,-0.17 -0.65,-0.59 -0.74,-2.41 -2.83,-4.22 -4.78,-4.22 -1.4,0 -2.13,0.93 -2.13,2.26 0,0.91 0.85,4.08 1.81,7.96 0.71,2.67 2.27,3.54 3.42,3.54 0.07,0 1.15,0 1.88,-0.48 -1.11,-0.31 -1.53,-1.3 -1.53,-1.92 0,-0.77 0.59,-1.29 1.39,-1.29 0.81,0 1.95,0.66 1.95,2.13 0,1.95 -2.23,2.53 -3.62,2.53 -1.74,0 -3.14,-1.14 -3.91,-2.47 -0.62,1.44 -2.22,2.47 -4.17,2.47 -3.91,0 -6.14,-4.28 -6.14,-5.33 0,-0.45 0.5,-0.45 0.59,-0.45 0.46,0 0.49,0.14 0.68,0.59 0.85,2.72 3.06,4.22 4.76,4.22 1.16,0 2.09,-0.62 2.09,-2.29 0,-0.71 -0.42,-2.44 -0.73,-3.63 z"
           inkscape:connector-curvature="0"
           style="fill:#000000;stroke-width:0" /><polyline
           id="polyline9922"
           points="593,418 630.32,418 630.32,420.04 593,420.04 "
           style="fill:#000000;fill-rule:nonzero;stroke-width:0" /><path
           id="path9924"
           d="m 608.43,402.38 -0.12,-0.02 -0.11,-0.02 -0.11,-0.03 -0.1,-0.04 -0.1,-0.04 -0.1,-0.04 -0.09,-0.04 -0.09,-0.05 -0.08,-0.05 -0.08,-0.06 -0.07,-0.05 -0.07,-0.06 -0.07,-0.06 -0.06,-0.07 -0.06,-0.06 -0.06,-0.07 -0.05,-0.07 -0.05,-0.07 -0.04,-0.08 -0.05,-0.07 -0.03,-0.07 -0.04,-0.08 -0.03,-0.07 -0.02,-0.08 -0.03,-0.08 -0.02,-0.07 -0.02,-0.08 -0.01,-0.07 -0.01,-0.08 -0.01,-0.07 v -0.08 -0.07 c 0,-0.94 0.73,-1.28 1.35,-1.28 0.77,0 1.99,0.55 1.99,2.22 0,2.37 -2.72,3.03 -4.59,3.03 -5.24,0 -10.08,-4.8 -10.08,-9.64 0,-3 2.09,-6.06 6.45,-6.06 5.89,0 8.64,3.43 8.64,3.93 0,0.21 -0.31,0.6 -0.59,0.6 -0.21,0 -0.29,-0.08 -0.57,-0.36 -2.72,-3.21 -6.79,-3.21 -7.42,-3.21 -2.5,0 -3.62,1.71 -3.62,3.88 0,1 0.5,4.8 2.31,7.2 1.31,1.72 3.13,2.69 4.88,2.69 0.48,0 2.15,-0.06 3.03,-1.05 z"
           inkscape:connector-curvature="0"
           style="fill:#000000;stroke-width:0" /><path
           id="path9926"
           d="m 620.84,399.84 v 0.04 0.03 0.03 0.04 0.03 0.03 0.02 0.03 0.03 0.02 l -0.01,0.03 v 0.02 0.02 0.03 l -0.01,0.02 v 0.02 l -0.01,0.02 v 0.02 l -0.01,0.03 -0.01,0.03 -0.01,0.03 -0.02,0.03 -0.02,0.02 -0.02,0.02 -0.02,0.02 -0.02,0.02 -0.03,0.01 -0.03,0.01 -0.03,0.01 -0.04,0.01 -0.03,0.01 -0.05,0.01 h -0.02 -0.02 -0.02 l -0.03,0.01 h -0.02 -0.03 -0.03 -0.03 -0.03 -0.03 -0.03 -0.03 -0.03 -0.04 -0.03 -0.04 -0.03 -0.04 C 618.17,399 615.41,399 614.91,399 h -0.43 v -1.09 h 0.43 c 0.57,0 2.18,0.06 3.64,0.68 v -12.45 c 0,-0.76 0,-1.05 -2.64,-1.05 h -1.25 V 384 c 1.37,0.09 3.59,0.09 5.03,0.09 1.45,0 3.67,0 5.03,-0.09 v 1.09 h -1.24 c -2.64,0 -2.64,0.29 -2.64,1.05 z"
           inkscape:connector-curvature="0"
           style="fill:#000000;stroke-width:0" /></g>    </g>
  </g>
</svg>
